{
  "kind": "collectionType",
  "collectionName": "participants",
  "info": {
    "singularName": "participant",
    "pluralName": "participants",
    "displayName": "participant",
    "description": ""
  },
  "options": {
    "draftAndPublish": true
  },
  "pluginOptions": {},
  "attributes": {
    "nom": {
      "type": "string",
      "required": true
    },
    "reseau_social": {
      "type": "string"
    },
    "podcasts": {
      "type": "relation",
      "relation": "manyToMany",
      "target": "api::podcast.podcast",
      "inversedBy": "participants"
    }
  }
}
